…
```r
challenger
```

```
## # A tibble: 23 × 2
##     temp damage
##    <dbl>  <dbl>
##  1    53      5
##  2    57      1
##  3    58      1
##  4    63      1
##  5    66      0
##  6    67      0
##  7    67      0
##  8    67      0
##  9    68      0
## 10    69      0
## # … with 13 more rows
```
…
::: {.panel}
[tidyverse]{.panel-name}

```r
challenger <-
challenger %>%
  mutate(total = 6,                     # total number of o-rings
         intact = 6 - damage,           # number of undamaged o-rings
         prop_damaged = damage / total) # proportion damaged o-rings

challenger
```

```
## # A tibble: 23 × 5
##     temp damage total intact prop_damaged
##    <dbl>  <dbl> <dbl>  <dbl>        <dbl>
##  1    53      5     6      1        0.833
##  2    57      1     6      5        0.167
##  3    58      1     6      5        0.167
##  4    63      1     6      5        0.167
##  5    66      0     6      6        0    
##  6    67      0     6      6        0    
##  7    67      0     6      6        0    
##  8    67      0     6      6        0    
##  9    68      0     6      6        0    
## 10    69      0     6      6        0    
## # … with 13 more rows
```
…
