…
The results we generated above do not differ much from the values we obtained with the entire data set. However, these are based on 3/4 of the data (our training data set). Because of this, we still have our test data set available to apply this workflow to data the model has not yet seen.


```r
dia_aug <- 
augment(dia_fit, test_data)

dia_aug
```

```
## # A tibble: 183 × 6
##    glucose diastolic test_result .pred_class .pred_negative .pred_positive
##      <dbl>     <dbl> <fct>       <fct>                <dbl>          <dbl>
##  1      85        66 negative    negative            0.906          0.0938
##  2     183        64 positive    positive            0.152          0.848 
##  3     168        74 positive    positive            0.249          0.751 
##  4     166        72 positive    positive            0.264          0.736 
##  5     115        70 positive    negative            0.740          0.260 
##  6      99        84 negative    negative            0.845          0.155 
##  7     196        90 positive    positive            0.0959         0.904 
##  8     119        80 positive    negative            0.708          0.292 
##  9     143        94 positive    positive            0.478          0.522 
## 10      97        66 negative    negative            0.856          0.144 
## # … with 173 more rows
```
…
Apply the fitted model to the test data set:

```r
dia_aug <- 
augment(dia_fit, test_data)

dia_aug
```

```
## # A tibble: 183 × 6
##    glucose diastolic test_result .pred_class .pred_negative .pred_positive
##      <dbl>     <dbl> <fct>       <fct>                <dbl>          <dbl>
##  1      85        66 negative    negative            0.914          0.0862
##  2     183        64 positive    positive            0.189          0.811 
##  3     168        74 positive    positive            0.257          0.743 
##  4     166        72 positive    positive            0.280          0.720 
##  5     115        70 positive    negative            0.751          0.249 
##  6      99        84 negative    negative            0.811          0.189 
##  7     196        90 positive    positive            0.0776         0.922 
##  8     119        80 positive    negative            0.679          0.321 
##  9     143        94 positive    positive            0.385          0.615 
## 10      97        66 negative    negative            0.869          0.131 
## # … with 173 more rows
```
…
