Chapter 2 Hierarchical clustering | CamStats
…
2.5 Get to know your data

Let’s load the data we need for this session (we don’t need the raw data):

trans_cts <- read_csv("data/transcriptome/counts_transformed.csv")
sample_info <- read_csv("data/transcriptome/sample_info.csv")
test_result <- read_csv("data/transcriptome/test_result.csv")

2.5.1 Transformed counts

Let’s look at the transformed count data:

trans_cts

## # A tibble: 6,011 × 37
##    gene     wt_0_r1 wt_0_r2 wt_0_r3 wt_15_r1 wt_15_r2 wt_15_r3 wt_30_r1 wt_30_r2
##    <chr>      <dbl>   <dbl>   <dbl>    <dbl>    <dbl>    <dbl>    <dbl>    <dbl>
##  1 SPAC212…    4.95    4.97    5.66     5.45     5.44     6.50     5.08     5.25
##  2 SPAC212…    5.44    6.21    6.17     5.94     6.33     6.41     6.71     7.15
##  3 SPAC212…    5.75    5.06    5.54     5.68     5.18     5.10     5.82     6.31
##  4 SPNCRNA…    5.73    4.87    4.94     5.57     5.32     4.20     5.17     4.77
##  5 SPAC977…    7.05    6.84    6.79     6.87     6.09     6.19     6.91     6.66
##  6 SPAC977…    5.34    5.34    5.31     5.32     5.99     5.30     7.61     7.48
##  7 SPAC977…    6.50    6.23    6.70     7.03     6.92     7.53     6.44     6.68
##  8 SPAC977…    7.24    7.46    7.48     7.09     7.46     7.65     6.88     7.13
##  9 SPNCRNA…    5.96    5.69    5.94     5.92     5.87     4.84     7.38     7.30
## 10 SPAC1F8…    6.64    6.65    6.78     4.62     5.61     6.15     5.66     6.50
## # … with 6,001 more rows, and 28 more variables: wt_30_r3 <dbl>,
## #   wt_60_r1 <dbl>, wt_60_r2 <dbl>, wt_60_r3 <dbl>, wt_120_r1 <dbl>,
## #   wt_120_r2 <dbl>, wt_120_r3 <dbl>, wt_180_r1 <dbl>, wt_180_r2 <dbl>,
## #   wt_180_r3 <dbl>, mut_0_r1 <dbl>, mut_0_r2 <dbl>, mut_0_r3 <dbl>,
## #   mut_15_r1 <dbl>, mut_15_r2 <dbl>, mut_15_r3 <dbl>, mut_30_r1 <dbl>,
## #   mut_30_r2 <dbl>, mut_30_r3 <dbl>, mut_60_r1 <dbl>, mut_60_r2 <dbl>,
## #   mut_60_r3 <dbl>, mut_120_r1 <dbl>, mut_120_r2 <dbl>, mut_120_r3 <dbl>, …

Here we have a list of genes, with 37 columns. The columns encode information about the strain (wt/mut), time point (0, 15, etc) and repeat (r1, r2, r3). This is something we need to be aware of, because it’s often not helpful to have that kind of information encoded in the column name.

A quick check also tells us that there are 6,011 genes in this data set, with each gene only occurring once:

trans_cts %>% 
  count(gene) %>%  # count the number of genes
  arrange(desc(n)) # arrange in descending order

## # A tibble: 6,011 × 2
##    gene             n
##    <chr>        <int>
##  1 SPAC1002.01      1
##  2 SPAC1002.02      1
##  3 SPAC1002.03c     1
##  4 SPAC1002.04c     1
##  5 SPAC1002.05c     1
##  6 SPAC1002.07c     1
##  7 SPAC1002.08c     1
##  8 SPAC1002.09c     1
##  9 SPAC1002.10c     1
## 10 SPAC1002.11      1
## # … with 6,001 more rows

2.5.2 Sample info

Let’s have a look to see what is in the sample info:

sample_info

## # A tibble: 36 × 4
##    sample   strain minute replicate
##    <chr>    <chr>   <dbl> <chr>    
##  1 wt_0_r1  wt          0 r1       
##  2 wt_0_r2  wt          0 r2       
##  3 wt_0_r3  wt          0 r3       
##  4 wt_15_r1 wt         15 r1       
##  5 wt_15_r2 wt         15 r2       
##  6 wt_15_r3 wt         15 r3       
##  7 wt_30_r1 wt         30 r1       
##  8 wt_30_r2 wt         30 r2       
##  9 wt_30_r3 wt         30 r3       
## 10 wt_60_r1 wt         60 r1       
## # … with 26 more rows

This data set contains all the information of the various samples, but with the data also split by column. That’ll come in handy later on.

2.5.3 Test results

test_result

## # A tibble: 30,055 × 8
##    gene        baseMean log2FoldChange lfcSE   stat pvalue  padj comparison
##    <chr>          <dbl>          <dbl> <dbl>  <dbl>  <dbl> <dbl>      <dbl>
##  1 SPAC212.11      8.55         1.54   0.497  1.09  0.276      1         15
##  2 SPAC212.09c    50.8          0.399  0.273  0     1          1         15
##  3 SPAC212.04c    38.3         -0.0230 0.269  0     1          1         15
##  4 SPNCRNA.601     9.47        -0.0841 0.483  0     1          1         15
##  5 SPAC977.11     70.4         -0.819  0.201  0     1          1         15
##  6 SPAC977.13c    36.7          1.19   0.344  0.552 0.581      1         15
##  7 SPAC977.15     49.1          0.600  0.208  0     1          1         15
##  8 SPAC977.16c    83.2          0.148  0.239  0     1          1         15
##  9 SPNCRNA.607    60.4          0.0638 0.268  0     1          1         15
## 10 SPAC1F8.06     74.2         -1.58   0.298 -1.94  0.0520     1         15
## # … with 30,045 more rows

The test results give us the results of a statistical test between the first time point in the WT cells, comparing it to all the other time points. The null hypothesis is that there is no difference. The column that we’re mostly interested in is the padj, which gives us the adjusted p-values.

test_result %>% 
  select(gene, padj)

## # A tibble: 30,055 × 2
##    gene         padj
##    <chr>       <dbl>
##  1 SPAC212.11      1
##  2 SPAC212.09c     1
##  3 SPAC212.04c     1
##  4 SPNCRNA.601     1
##  5 SPAC977.11      1
##  6 SPAC977.13c     1
##  7 SPAC977.15      1
##  8 SPAC977.16c     1
##  9 SPNCRNA.607     1
## 10 SPAC1F8.06      1
## # … with 30,045 more rows
…
