Chapter 2 Logistic Models – Binary Response | CamStats
…
Created a pre-processing recipe (dia_rec),

Combined the model and recipe into a workflow (dia_wflow)

Trained our workflow using the fit() function (dia_fit)

The results we generated above do not differ much from the values we obtained with the entire data set. However, these are based on 3/4 of the data (our training data set). Because of this, we still have our test data set available to apply this workflow to data the model has not yet seen.

dia_aug <- 
augment(dia_fit, test_data)

dia_aug

## # A tibble: 183 × 6
##    glucose diastolic test_result .pred_class .pred_negative .pred_positive
##      <dbl>     <dbl> <fct>       <fct>                <dbl>          <dbl>
##  1     137        40 positive    negative            0.731           0.269
##  2     197        70 positive    positive            0.121           0.879
##  3     110        92 negative    negative            0.685           0.315
##  4     115        70 positive    negative            0.753           0.247
##  5     196        90 positive    positive            0.0813          0.919
##  6      97        66 negative    negative            0.869           0.131
##  7     138        76 negative    negative            0.525           0.475
##  8     111        72 positive    negative            0.771           0.229
##  9     103        66 positive    negative            0.841           0.159
## 10     187        68 positive    positive            0.174           0.826
## # … with 173 more rows
…
