Chapter 5 Poisson Regression – Count Response | CamStats
…
This is a data set comprising 35 observations of two variables (one dependent and one predictor). This records the number of species recorded on different small islands along with the area (km2)of the islands. The variables are species and area.

5.4 Visualise the data

First we load the data, then we visualise it.

tidyverse
First, we load and inspect the data:

islands <- read_csv("data/island.csv")

islands

## # A tibble: 35 × 2
##    species  area
##      <dbl> <dbl>
##  1     114  12.1
##  2     130  13.4
##  3     113  13.7
##  4     109  14.5
##  5     118  16.8
##  6     136  19.0
##  7     149  19.6
##  8     162  20.6
##  9     145  20.9
## 10     148  21.0
## # … with 25 more rows
…
data(Seatbelts)

seatbelts <- Seatbelts %>%
  as_tibble() %>%
  mutate(Year = floor(time(Seatbelts)),
         Year = as.numeric(Year),
         Month = factor(cycle(Seatbelts),
                        labels = month.abb),
         law = factor(law)) %>% 
  clean_names()

# check if the data is now in a decent format
seatbelts

## # A tibble: 192 × 10
##    drivers_killed drivers front  rear   kms petrol_price van_killed law    year
##             <dbl>   <dbl> <dbl> <dbl> <dbl>        <dbl>      <dbl> <fct> <dbl>
##  1            107    1687   867   269  9059        0.103         12 0      1969
##  2             97    1508   825   265  7685        0.102          6 0      1969
##  3            102    1507   806   319  9963        0.102         12 0      1969
##  4             87    1385   814   407 10955        0.101          8 0      1969
##  5            119    1632   991   454 11823        0.101         10 0      1969
##  6            106    1511   945   427 12391        0.101         13 0      1969
##  7            110    1559  1004   522 13460        0.104         11 0      1969
##  8            106    1630  1091   536 14055        0.104          6 0      1969
##  9            107    1579   958   405 12106        0.104         10 0      1969
## 10            134    1653   850   437 11372        0.103         16 0      1969
## # … with 182 more rows, and 1 more variable: month <fct>
…
