Chapter 7 Principal component analysis (PCA) | CamStats
…
7.5 Visualise the data

First of all, let’s have a look at the data. It is always a good idea to get a sense of how your data.

tidyverse
First, we load and inspect the data:

# attach the data
data(package = 'palmerpenguins')

# inspect the data
penguins

## # A tibble: 344 × 8
##    species island    bill_length_mm bill_depth_mm flipper_length_mm body_mass_g
##    <fct>   <fct>              <dbl>         <dbl>             <int>       <int>
##  1 Adelie  Torgersen           39.1          18.7               181        3750
##  2 Adelie  Torgersen           39.5          17.4               186        3800
##  3 Adelie  Torgersen           40.3          18                 195        3250
##  4 Adelie  Torgersen           NA            NA                  NA          NA
##  5 Adelie  Torgersen           36.7          19.3               193        3450
##  6 Adelie  Torgersen           39.3          20.6               190        3650
##  7 Adelie  Torgersen           38.9          17.8               181        3625
##  8 Adelie  Torgersen           39.2          19.6               195        4675
##  9 Adelie  Torgersen           34.1          18.1               193        3475
## 10 Adelie  Torgersen           42            20.2               190        4250
## # … with 334 more rows, and 2 more variables: sex <fct>, year <int>
…
Arrow:

# define arrow style
arrow_style <- arrow(length = unit(2, "mm"),
                     type = "closed")

To plot PC1 vs PC2, we need to extract the relevant data. All of the PCA-related data is stored in the penguin_recipe object. Since the people who developed tidymodels are quite fond of verbs (I’m really more of an adjective kind-of-guy myself…) they invented the bake() function.

The logic is: you follow a recipe() and then you bake() it. Yes, I know.

Anyways, we use this to get the data from our penguin_recipe, telling the function that it shouldn’t expect any new data (the function is also used in model testing, where data is split in a training and test data set).

bake(penguin_recipe, new_data = NULL)

## # A tibble: 342 × 8
##    species island    sex     year    PC1      PC2     PC3     PC4
##    <fct>   <fct>     <fct>  <int>  <dbl>    <dbl>   <dbl>   <dbl>
##  1 Adelie  Torgersen male    2007 -1.84  -0.0476   0.232   0.523 
##  2 Adelie  Torgersen female  2007 -1.30   0.428    0.0295  0.402 
##  3 Adelie  Torgersen female  2007 -1.37   0.154   -0.198  -0.527 
##  4 Adelie  Torgersen female  2007 -1.88   0.00205  0.618  -0.478 
##  5 Adelie  Torgersen male    2007 -1.91  -0.828    0.686  -0.207 
##  6 Adelie  Torgersen female  2007 -1.76   0.351   -0.0276  0.504 
##  7 Adelie  Torgersen male    2007 -0.809 -0.522    1.33    0.338 
##  8 Adelie  Torgersen <NA>    2007 -1.83   0.769    0.689  -0.427 
##  9 Adelie  Torgersen <NA>    2007 -1.19  -1.02     0.729   0.333 
## 10 Adelie  Torgersen <NA>    2007 -1.73   0.787   -0.205   0.0205
## # … with 332 more rows
…
