…
#### tidyverse {.unnumbered}


```r
# load the data
miceWeight <- read_csv("data/AS2-FemaleMiceWeights.csv")

# view the data
miceWeight
```

```
## # A tibble: 24 × 2
##    Diet    Bodyweight
##    <chr>        <dbl>
##  1 control       21.5
##  2 control       28.1
##  3 control       24.0
##  4 control       23.4
##  5 control       23.7
##  6 control       19.8
##  7 control       28.4
##  8 control       21.0
##  9 control       22.5
## 10 control       20.1
## # … with 14 more rows
```
…
