Chapter 7 Single predictor permutation tests | CamStats
…
\(H_1\): there is a difference in the means of the two groups

7.4.1 Load and visualise the data

First we load the data, then we visualise it.

tidyverse

# load the data
mice <- read_csv("data/mice.csv")

# view the data
mice

## # A tibble: 24 × 2
##    diet    weight
##    <chr>    <dbl>
##  1 control   21.5
##  2 control   28.1
##  3 control   24.0
##  4 control   23.4
##  5 control   23.7
##  6 control   19.8
##  7 control   28.4
##  8 control   21.0
##  9 control   22.5
## 10 control   20.1
## # … with 14 more rows
…
tidyverse
Have a look at the stat options in the calculate() function

Answer

tidyverse

As always, let’s first load and visualise the data:

rats <- read_csv("data/rats.csv")

rats

## # A tibble: 24 × 2
##     time group  
##    <dbl> <chr>  
##  1   300 control
##  2   300 control
##  3   300 control
##  4   300 control
##  5   300 control
##  6   300 control
##  7   300 control
##  8   300 control
##  9   300 control
## 10   300 control
## # … with 14 more rows
…
install.packages("palmerpenguins")

library(palmerpenguins)

Let’s attach the data and remove the missing values. We’re also filter out data on one type of penguin, just to make our analysis a bit easier to follow.

data("penguins")

penguins <- penguins %>%
  filter(species != "Adelie") %>% 
  drop_na()

penguins

## # A tibble: 187 × 8
##    species island bill_length_mm bill_depth_mm flipper_length_mm body_mass_g
##    <fct>   <fct>           <dbl>         <dbl>             <int>       <int>
##  1 Gentoo  Biscoe           46.1          13.2               211        4500
##  2 Gentoo  Biscoe           50            16.3               230        5700
##  3 Gentoo  Biscoe           48.7          14.1               210        4450
##  4 Gentoo  Biscoe           50            15.2               218        5700
##  5 Gentoo  Biscoe           47.6          14.5               215        5400
##  6 Gentoo  Biscoe           46.5          13.5               210        4550
##  7 Gentoo  Biscoe           45.4          14.6               211        4800
##  8 Gentoo  Biscoe           46.7          15.3               219        5200
##  9 Gentoo  Biscoe           43.3          13.4               209        4400
## 10 Gentoo  Biscoe           46.8          15.4               215        5150
## # … with 177 more rows, and 2 more variables: sex <fct>, year <int>
…
